module bh/redisPublisher

go 1.17

require (
	github.com/go-redis/redis/v8 v8.11.4
	github.com/gofiber/fiber/v2 v2.27.0
	github.com/google/uuid v1.3.0
)

require (
	github.com/andybalholm/brotli v1.0.4 // indirect
	github.com/cespare/xxhash/v2 v2.1.2 // indirect
	github.com/dgryski/go-rendezvous v0.0.0-20200823014737-9f7001d12a5f // indirect
	github.com/klauspost/compress v1.14.1 // indirect
	github.com/valyala/bytebufferpool v1.0.0 // indirect
	github.com/valyala/fasthttp v1.33.0 // indirect
	github.com/valyala/tcplisten v1.0.0 // indirect
	golang.org/x/sys v0.0.0-20220111092808-5a964db01320 // indirect
)
